{
    "m_SGVersion": 2,
    "m_Type": "UnityEditor.ShaderGraph.GraphData",
    "m_ObjectId": "19b4277e2c7645afbf7c8f6dd961d670",
    "m_Properties": [
        {
            "m_Id": "ff84d46ac9514558b3c886bbf5782350"
        },
        {
            "m_Id": "d48df8321f9948faac641001f4da0ffc"
        }
    ],
    "m_Keywords": [],
    "m_Nodes": [
        {
            "m_Id": "a4bd1bd15ea94ebd98d2a52652adce60"
        },
        {
            "m_Id": "ffd8b9ffbddf4f71a611610c229f395d"
        },
        {
            "m_Id": "86ba13ac0c024b3090d8dfd67b55b8f6"
        },
        {
            "m_Id": "1f96d2b31a5f4e19b264ce491d174ad1"
        },
        {
            "m_Id": "e9c599eddd2149e2b56b95a2652bd9f8"
        },
        {
            "m_Id": "6bbf7a605110459d8b6f04c1790197ee"
        },
        {
            "m_Id": "22379dee4a61494c987e37b13ec19c38"
        },
        {
            "m_Id": "1d13e709536747a79276b86d2dfc0db6"
        },
        {
            "m_Id": "7805fcf7b6d74c6881e74bd09793f218"
        },
        {
            "m_Id": "47fba83ab6874663aba3313d75fae1fc"
        },
        {
            "m_Id": "1071740341c34c21991b933ba863c0d4"
        },
        {
            "m_Id": "e51717234eed42de9c898c0066be1dd9"
        },
        {
            "m_Id": "37302ffc85cd43b99c0cf3d54a1fe8a5"
        },
        {
            "m_Id": "55dfb9c10cc4461199b1b575770d7a4b"
        },
        {
            "m_Id": "7d552df0095a4d9cb04157d3cdac18d8"
        },
        {
            "m_Id": "448a84c9996a4615b62d6fb88d04276e"
        },
        {
            "m_Id": "d146baaa7b294c639bcc88e6bdbe7ecc"
        }
    ],
    "m_GroupDatas": [
        {
            "m_Id": "7a0b9a012d15497a8f029e00fa3ce9d5"
        }
    ],
    "m_StickyNoteDatas": [
        {
            "m_Id": "5c9d9f06e9264df6afbcc8aad2d12dfa"
        },
        {
            "m_Id": "eb9980dd4fae49b7869d6cd56ee018e3"
        },
        {
            "m_Id": "50bacf7c5a1245b3a2474a02d2b4131c"
        },
        {
            "m_Id": "0288ea7dc3df49cb902dba3c5d2752ee"
        },
        {
            "m_Id": "cefe5faf10e24c40a0981cdba82d89ed"
        },
        {
            "m_Id": "ddc48fe05ced4a0bbaa6f29ace227851"
        }
    ],
    "m_Edges": [
        {
            "m_OutputSlot": {
                "m_Node": {
                    "m_Id": "1071740341c34c21991b933ba863c0d4"
                },
                "m_SlotId": 3
            },
            "m_InputSlot": {
                "m_Node": {
                    "m_Id": "a4bd1bd15ea94ebd98d2a52652adce60"
                },
                "m_SlotId": 1
            }
        },
        {
            "m_OutputSlot": {
                "m_Node": {
                    "m_Id": "1d13e709536747a79276b86d2dfc0db6"
                },
                "m_SlotId": 2
            },
            "m_InputSlot": {
                "m_Node": {
                    "m_Id": "7805fcf7b6d74c6881e74bd09793f218"
                },
                "m_SlotId": 0
            }
        },
        {
            "m_OutputSlot": {
                "m_Node": {
                    "m_Id": "1f96d2b31a5f4e19b264ce491d174ad1"
                },
                "m_SlotId": 2
            },
            "m_InputSlot": {
                "m_Node": {
                    "m_Id": "22379dee4a61494c987e37b13ec19c38"
                },
                "m_SlotId": 1
            }
        },
        {
            "m_OutputSlot": {
                "m_Node": {
                    "m_Id": "22379dee4a61494c987e37b13ec19c38"
                },
                "m_SlotId": 2
            },
            "m_InputSlot": {
                "m_Node": {
                    "m_Id": "7805fcf7b6d74c6881e74bd09793f218"
                },
                "m_SlotId": 1
            }
        },
        {
            "m_OutputSlot": {
                "m_Node": {
                    "m_Id": "37302ffc85cd43b99c0cf3d54a1fe8a5"
                },
                "m_SlotId": 0
            },
            "m_InputSlot": {
                "m_Node": {
                    "m_Id": "47fba83ab6874663aba3313d75fae1fc"
                },
                "m_SlotId": 1
            }
        },
        {
            "m_OutputSlot": {
                "m_Node": {
                    "m_Id": "47fba83ab6874663aba3313d75fae1fc"
                },
                "m_SlotId": 2
            },
            "m_InputSlot": {
                "m_Node": {
                    "m_Id": "1071740341c34c21991b933ba863c0d4"
                },
                "m_SlotId": 0
            }
        },
        {
            "m_OutputSlot": {
                "m_Node": {
                    "m_Id": "55dfb9c10cc4461199b1b575770d7a4b"
                },
                "m_SlotId": 0
            },
            "m_InputSlot": {
                "m_Node": {
                    "m_Id": "7d552df0095a4d9cb04157d3cdac18d8"
                },
                "m_SlotId": 0
            }
        },
        {
            "m_OutputSlot": {
                "m_Node": {
                    "m_Id": "6bbf7a605110459d8b6f04c1790197ee"
                },
                "m_SlotId": 2
            },
            "m_InputSlot": {
                "m_Node": {
                    "m_Id": "1d13e709536747a79276b86d2dfc0db6"
                },
                "m_SlotId": 1
            }
        },
        {
            "m_OutputSlot": {
                "m_Node": {
                    "m_Id": "7805fcf7b6d74c6881e74bd09793f218"
                },
                "m_SlotId": 2
            },
            "m_InputSlot": {
                "m_Node": {
                    "m_Id": "47fba83ab6874663aba3313d75fae1fc"
                },
                "m_SlotId": 0
            }
        },
        {
            "m_OutputSlot": {
                "m_Node": {
                    "m_Id": "7d552df0095a4d9cb04157d3cdac18d8"
                },
                "m_SlotId": 3
            },
            "m_InputSlot": {
                "m_Node": {
                    "m_Id": "448a84c9996a4615b62d6fb88d04276e"
                },
                "m_SlotId": 0
            }
        },
        {
            "m_OutputSlot": {
                "m_Node": {
                    "m_Id": "86ba13ac0c024b3090d8dfd67b55b8f6"
                },
                "m_SlotId": 2
            },
            "m_InputSlot": {
                "m_Node": {
                    "m_Id": "1d13e709536747a79276b86d2dfc0db6"
                },
                "m_SlotId": 0
            }
        },
        {
            "m_OutputSlot": {
                "m_Node": {
                    "m_Id": "d146baaa7b294c639bcc88e6bdbe7ecc"
                },
                "m_SlotId": 0
            },
            "m_InputSlot": {
                "m_Node": {
                    "m_Id": "ffd8b9ffbddf4f71a611610c229f395d"
                },
                "m_SlotId": 0
            }
        },
        {
            "m_OutputSlot": {
                "m_Node": {
                    "m_Id": "e51717234eed42de9c898c0066be1dd9"
                },
                "m_SlotId": 0
            },
            "m_InputSlot": {
                "m_Node": {
                    "m_Id": "1071740341c34c21991b933ba863c0d4"
                },
                "m_SlotId": 1
            }
        },
        {
            "m_OutputSlot": {
                "m_Node": {
                    "m_Id": "e9c599eddd2149e2b56b95a2652bd9f8"
                },
                "m_SlotId": 2
            },
            "m_InputSlot": {
                "m_Node": {
                    "m_Id": "22379dee4a61494c987e37b13ec19c38"
                },
                "m_SlotId": 0
            }
        },
        {
            "m_OutputSlot": {
                "m_Node": {
                    "m_Id": "ffd8b9ffbddf4f71a611610c229f395d"
                },
                "m_SlotId": 1
            },
            "m_InputSlot": {
                "m_Node": {
                    "m_Id": "86ba13ac0c024b3090d8dfd67b55b8f6"
                },
                "m_SlotId": 0
            }
        },
        {
            "m_OutputSlot": {
                "m_Node": {
                    "m_Id": "ffd8b9ffbddf4f71a611610c229f395d"
                },
                "m_SlotId": 1
            },
            "m_InputSlot": {
                "m_Node": {
                    "m_Id": "e9c599eddd2149e2b56b95a2652bd9f8"
                },
                "m_SlotId": 0
            }
        },
        {
            "m_OutputSlot": {
                "m_Node": {
                    "m_Id": "ffd8b9ffbddf4f71a611610c229f395d"
                },
                "m_SlotId": 2
            },
            "m_InputSlot": {
                "m_Node": {
                    "m_Id": "1f96d2b31a5f4e19b264ce491d174ad1"
                },
                "m_SlotId": 0
            }
        },
        {
            "m_OutputSlot": {
                "m_Node": {
                    "m_Id": "ffd8b9ffbddf4f71a611610c229f395d"
                },
                "m_SlotId": 2
            },
            "m_InputSlot": {
                "m_Node": {
                    "m_Id": "6bbf7a605110459d8b6f04c1790197ee"
                },
                "m_SlotId": 0
            }
        }
    ],
    "m_VertexContext": {
        "m_Position": {
            "x": 0.0,
            "y": 0.0
        },
        "m_Blocks": []
    },
    "m_FragmentContext": {
        "m_Position": {
            "x": 0.0,
            "y": 0.0
        },
        "m_Blocks": []
    },
    "m_PreviewData": {
        "serializedMesh": {
            "m_SerializedMesh": "{\"mesh\":{\"fileID\":10202,\"guid\":\"0000000000000000e000000000000000\",\"type\":0}}",
            "m_Guid": ""
        }
    },
    "m_Path": "Sub Graphs",
    "m_ConcretePrecision": 0,
    "m_PreviewMode": 1,
    "m_OutputNode": {
        "m_Id": "a4bd1bd15ea94ebd98d2a52652adce60"
    },
    "m_ActiveTargets": []
}

{
    "m_SGVersion": 0,
    "m_Type": "UnityEditor.ShaderGraph.StickyNoteData",
    "m_ObjectId": "0288ea7dc3df49cb902dba3c5d2752ee",
    "m_Title": "And",
    "m_Content": "Enable or disable grid cell debug visibility",
    "m_TextSize": 0,
    "m_Theme": 0,
    "m_Position": {
        "serializedVersion": "2",
        "x": 40.0,
        "y": -185.0,
        "width": 293.0,
        "height": 100.0
    },
    "m_Group": {
        "m_Id": ""
    }
}

{
    "m_SGVersion": 0,
    "m_Type": "UnityEditor.ShaderGraph.Vector1MaterialSlot",
    "m_ObjectId": "030430f708ff40c49f54cf67e25be435",
    "m_Id": 1,
    "m_DisplayName": "B",
    "m_SlotType": 0,
    "m_Hidden": false,
    "m_ShaderOutputName": "B",
    "m_StageCapability": 3,
    "m_Value": 0.9800000190734863,
    "m_DefaultValue": 0.0,
    "m_Labels": []
}

{
    "m_SGVersion": 0,
    "m_Type": "UnityEditor.ShaderGraph.BooleanMaterialSlot",
    "m_ObjectId": "04ee58c2504d4484a40c63c7160865ee",
    "m_Id": 2,
    "m_DisplayName": "Out",
    "m_SlotType": 1,
    "m_Hidden": false,
    "m_ShaderOutputName": "Out",
    "m_StageCapability": 3,
    "m_Value": false,
    "m_DefaultValue": false
}

{
    "m_SGVersion": 0,
    "m_Type": "UnityEditor.ShaderGraph.Vector2MaterialSlot",
    "m_ObjectId": "06da000a4012498e880c737c21cca5be",
    "m_Id": 2,
    "m_DisplayName": "Offset",
    "m_SlotType": 0,
    "m_Hidden": false,
    "m_ShaderOutputName": "Offset",
    "m_StageCapability": 3,
    "m_Value": {
        "x": 0.0,
        "y": 0.0
    },
    "m_DefaultValue": {
        "x": 0.0,
        "y": 0.0
    },
    "m_Labels": []
}

{
    "m_SGVersion": 0,
    "m_Type": "UnityEditor.ShaderGraph.BooleanMaterialSlot",
    "m_ObjectId": "103c81ee7adf44b3801b87aec4575c9a",
    "m_Id": 0,
    "m_DisplayName": "A",
    "m_SlotType": 0,
    "m_Hidden": false,
    "m_ShaderOutputName": "A",
    "m_StageCapability": 3,
    "m_Value": false,
    "m_DefaultValue": false
}

{
    "m_SGVersion": 0,
    "m_Type": "UnityEditor.ShaderGraph.BranchNode",
    "m_ObjectId": "1071740341c34c21991b933ba863c0d4",
    "m_Group": {
        "m_Id": ""
    },
    "m_Name": "Branch",
    "m_DrawState": {
        "m_Expanded": true,
        "m_Position": {
            "serializedVersion": "2",
            "x": 701.5,
            "y": -74.0,
            "width": 207.99998474121095,
            "height": 326.0
        }
    },
    "m_Slots": [
        {
            "m_Id": "c1c9a8ca34924e7db792c11312acbfdf"
        },
        {
            "m_Id": "4617bcda3bd94a13b0d89822c7ebdfaa"
        },
        {
            "m_Id": "db573f17ac094eafbcc3666c9e875e5e"
        },
        {
            "m_Id": "49542174809042caa90db7620e4ba315"
        }
    ],
    "synonyms": [],
    "m_Precision": 0,
    "m_PreviewExpanded": true,
    "m_PreviewMode": 0,
    "m_CustomColors": {
        "m_SerializableColors": []
    }
}

{
    "m_SGVersion": 0,
    "m_Type": "UnityEditor.ShaderGraph.OrNode",
    "m_ObjectId": "1d13e709536747a79276b86d2dfc0db6",
    "m_Group": {
        "m_Id": ""
    },
    "m_Name": "Or",
    "m_DrawState": {
        "m_Expanded": true,
        "m_Position": {
            "serializedVersion": "2",
            "x": -359.5000305175781,
            "y": -238.0,
            "width": 129.99998474121095,
            "height": 101.0
        }
    },
    "m_Slots": [
        {
            "m_Id": "103c81ee7adf44b3801b87aec4575c9a"
        },
        {
            "m_Id": "5de45d9cc59041faad147ab3afcfa5fd"
        },
        {
            "m_Id": "8c6bd07afbb846209786d907c08079bc"
        }
    ],
    "synonyms": [],
    "m_Precision": 0,
    "m_PreviewExpanded": true,
    "m_PreviewMode": 0,
    "m_CustomColors": {
        "m_SerializableColors": []
    }
}

{
    "m_SGVersion": 0,
    "m_Type": "UnityEditor.ShaderGraph.Vector1MaterialSlot",
    "m_ObjectId": "1f35a9a9b6324f3ebbd198c73227208b",
    "m_Id": 4,
    "m_DisplayName": "A",
    "m_SlotType": 1,
    "m_Hidden": false,
    "m_ShaderOutputName": "A",
    "m_StageCapability": 3,
    "m_Value": 0.0,
    "m_DefaultValue": 0.0,
    "m_Labels": []
}

{
    "m_SGVersion": 0,
    "m_Type": "UnityEditor.ShaderGraph.ComparisonNode",
    "m_ObjectId": "1f96d2b31a5f4e19b264ce491d174ad1",
    "m_Group": {
        "m_Id": ""
    },
    "m_Name": "Comparison",
    "m_DrawState": {
        "m_Expanded": true,
        "m_Position": {
            "serializedVersion": "2",
            "x": -603.5,
            "y": 165.0,
            "width": 145.0,
            "height": 136.99998474121095
        }
    },
    "m_Slots": [
        {
            "m_Id": "e4b964be75824c7e8b38606072878f95"
        },
        {
            "m_Id": "d5f28a795f8d4ec3a4768fd6b855ca9e"
        },
        {
            "m_Id": "5817951f8c5a427ea7972224119d68cf"
        }
    ],
    "synonyms": [],
    "m_Precision": 0,
    "m_PreviewExpanded": true,
    "m_PreviewMode": 0,
    "m_CustomColors": {
        "m_SerializableColors": []
    },
    "m_ComparisonType": 2
}

{
    "m_SGVersion": 0,
    "m_Type": "UnityEditor.ShaderGraph.OrNode",
    "m_ObjectId": "22379dee4a61494c987e37b13ec19c38",
    "m_Group": {
        "m_Id": ""
    },
    "m_Name": "Or",
    "m_DrawState": {
        "m_Expanded": true,
        "m_Position": {
            "serializedVersion": "2",
            "x": -359.5000305175781,
            "y": 93.0,
            "width": 129.99998474121095,
            "height": 101.0
        }
    },
    "m_Slots": [
        {
            "m_Id": "653e87889b134a5b91ca0f9560802cbf"
        },
        {
            "m_Id": "5727e591ef4647aa84f71c8e6c12ed5b"
        },
        {
            "m_Id": "bb62a3480d8349f98e00d4ca88db8e32"
        }
    ],
    "synonyms": [],
    "m_Precision": 0,
    "m_PreviewExpanded": true,
    "m_PreviewMode": 0,
    "m_CustomColors": {
        "m_SerializableColors": []
    }
}

{
    "m_SGVersion": 0,
    "m_Type": "UnityEditor.ShaderGraph.Vector2MaterialSlot",
    "m_ObjectId": "30f800c0397c4ed1854e03f1342b3f30",
    "m_Id": 1,
    "m_DisplayName": "Tiling",
    "m_SlotType": 0,
    "m_Hidden": false,
    "m_ShaderOutputName": "Tiling",
    "m_StageCapability": 3,
    "m_Value": {
        "x": 4.0,
        "y": 4.0
    },
    "m_DefaultValue": {
        "x": 0.0,
        "y": 0.0
    },
    "m_Labels": []
}

{
    "m_SGVersion": 0,
    "m_Type": "UnityEditor.ShaderGraph.PropertyNode",
    "m_ObjectId": "37302ffc85cd43b99c0cf3d54a1fe8a5",
    "m_Group": {
        "m_Id": ""
    },
    "m_Name": "Property",
    "m_DrawState": {
        "m_Expanded": true,
        "m_Position": {
            "serializedVersion": "2",
            "x": 22.000011444091798,
            "y": -6.9999799728393559,
            "width": 160.00001525878907,
            "height": 34.0
        }
    },
    "m_Slots": [
        {
            "m_Id": "6710befd4d6d4ee79b71e780abad6161"
        }
    ],
    "synonyms": [],
    "m_Precision": 0,
    "m_PreviewExpanded": true,
    "m_PreviewMode": 0,
    "m_CustomColors": {
        "m_SerializableColors": []
    },
    "m_Property": {
        "m_Id": "d48df8321f9948faac641001f4da0ffc"
    }
}

{
    "m_SGVersion": 0,
    "m_Type": "UnityEditor.ShaderGraph.BooleanMaterialSlot",
    "m_ObjectId": "3792e2ce5af241ff8871fe828aa6f371",
    "m_Id": 2,
    "m_DisplayName": "Out",
    "m_SlotType": 1,
    "m_Hidden": false,
    "m_ShaderOutputName": "Out",
    "m_StageCapability": 3,
    "m_Value": false,
    "m_DefaultValue": false
}

{
    "m_SGVersion": 0,
    "m_Type": "UnityEditor.ShaderGraph.Vector1MaterialSlot",
    "m_ObjectId": "42fb9a83ba6a4839841476984917ac1c",
    "m_Id": 0,
    "m_DisplayName": "A",
    "m_SlotType": 0,
    "m_Hidden": false,
    "m_ShaderOutputName": "A",
    "m_StageCapability": 3,
    "m_Value": 0.0,
    "m_DefaultValue": 0.0,
    "m_Labels": []
}

{
    "m_SGVersion": 0,
    "m_Type": "UnityEditor.ShaderGraph.FractionNode",
    "m_ObjectId": "448a84c9996a4615b62d6fb88d04276e",
    "m_Group": {
        "m_Id": "7a0b9a012d15497a8f029e00fa3ce9d5"
    },
    "m_Name": "Fraction",
    "m_DrawState": {
        "m_Expanded": true,
        "m_Position": {
            "serializedVersion": "2",
            "x": -1329.0,
            "y": -333.0,
            "width": 208.0,
            "height": 278.0
        }
    },
    "m_Slots": [
        {
            "m_Id": "75b962e1534d497e834d30689e756cf6"
        },
        {
            "m_Id": "763cd128b7ed4538b1e383a269a659e2"
        }
    ],
    "synonyms": [],
    "m_Precision": 0,
    "m_PreviewExpanded": true,
    "m_PreviewMode": 0,
    "m_CustomColors": {
        "m_SerializableColors": []
    }
}

{
    "m_SGVersion": 0,
    "m_Type": "UnityEditor.ShaderGraph.DynamicVectorMaterialSlot",
    "m_ObjectId": "4617bcda3bd94a13b0d89822c7ebdfaa",
    "m_Id": 1,
    "m_DisplayName": "True",
    "m_SlotType": 0,
    "m_Hidden": false,
    "m_ShaderOutputName": "True",
    "m_StageCapability": 3,
    "m_Value": {
        "x": 1.0,
        "y": 1.0,
        "z": 1.0,
        "w": 1.0
    },
    "m_DefaultValue": {
        "x": 0.0,
        "y": 0.0,
        "z": 0.0,
        "w": 0.0
    }
}

{
    "m_SGVersion": 0,
    "m_Type": "UnityEditor.ShaderGraph.AndNode",
    "m_ObjectId": "47fba83ab6874663aba3313d75fae1fc",
    "m_Group": {
        "m_Id": ""
    },
    "m_Name": "And",
    "m_DrawState": {
        "m_Expanded": true,
        "m_Position": {
            "serializedVersion": "2",
            "x": 205.49990844726563,
            "y": -75.0,
            "width": 129.99998474121095,
            "height": 101.0
        }
    },
    "m_Slots": [
        {
            "m_Id": "920f167be09a40afbe76590844d512d3"
        },
        {
            "m_Id": "69cf8a6da4694eb88a3cad1575a4ca88"
        },
        {
            "m_Id": "9e5aa731ca024de6b122adc023298c57"
        }
    ],
    "synonyms": [],
    "m_Precision": 0,
    "m_PreviewExpanded": true,
    "m_PreviewMode": 0,
    "m_CustomColors": {
        "m_SerializableColors": []
    }
}

{
    "m_SGVersion": 0,
    "m_Type": "UnityEditor.ShaderGraph.DynamicVectorMaterialSlot",
    "m_ObjectId": "49542174809042caa90db7620e4ba315",
    "m_Id": 3,
    "m_DisplayName": "Out",
    "m_SlotType": 1,
    "m_Hidden": false,
    "m_ShaderOutputName": "Out",
    "m_StageCapability": 3,
    "m_Value": {
        "x": 0.0,
        "y": 0.0,
        "z": 0.0,
        "w": 0.0
    },
    "m_DefaultValue": {
        "x": 0.0,
        "y": 0.0,
        "z": 0.0,
        "w": 0.0
    }
}

{
    "m_SGVersion": 0,
    "m_Type": "UnityEditor.ShaderGraph.StickyNoteData",
    "m_ObjectId": "50bacf7c5a1245b3a2474a02d2b4131c",
    "m_Title": "Or",
    "m_Content": "Returns true if either of the inputs A and B are true",
    "m_TextSize": 0,
    "m_Theme": 0,
    "m_Position": {
        "serializedVersion": "2",
        "x": -364.0,
        "y": -342.0,
        "width": 143.0,
        "height": 100.0
    },
    "m_Group": {
        "m_Id": ""
    }
}

{
    "m_SGVersion": 0,
    "m_Type": "UnityEditor.ShaderGraph.Vector4MaterialSlot",
    "m_ObjectId": "522088b64b2f4ecebb5a38f3fb525ca1",
    "m_Id": 1,
    "m_DisplayName": "Out_Vector4",
    "m_SlotType": 0,
    "m_Hidden": false,
    "m_ShaderOutputName": "OutVector4",
    "m_StageCapability": 3,
    "m_Value": {
        "x": 0.0,
        "y": 0.0,
        "z": 0.0,
        "w": 0.0
    },
    "m_DefaultValue": {
        "x": 0.0,
        "y": 0.0,
        "z": 0.0,
        "w": 0.0
    },
    "m_Labels": []
}

{
    "m_SGVersion": 0,
    "m_Type": "UnityEditor.ShaderGraph.Vector4MaterialSlot",
    "m_ObjectId": "5242be6b0966460cac1f1a5aaf054cbe",
    "m_Id": 0,
    "m_DisplayName": "Out",
    "m_SlotType": 1,
    "m_Hidden": false,
    "m_ShaderOutputName": "Out",
    "m_StageCapability": 3,
    "m_Value": {
        "x": 0.0,
        "y": 0.0,
        "z": 0.0,
        "w": 0.0
    },
    "m_DefaultValue": {
        "x": 0.0,
        "y": 0.0,
        "z": 0.0,
        "w": 0.0
    },
    "m_Labels": []
}

{
    "m_SGVersion": 0,
    "m_Type": "UnityEditor.ShaderGraph.Vector1MaterialSlot",
    "m_ObjectId": "52d2678e1e794fe790eca02500d178e9",
    "m_Id": 0,
    "m_DisplayName": "A",
    "m_SlotType": 0,
    "m_Hidden": false,
    "m_ShaderOutputName": "A",
    "m_StageCapability": 3,
    "m_Value": 0.0,
    "m_DefaultValue": 0.0,
    "m_Labels": []
}

{
    "m_SGVersion": 0,
    "m_Type": "UnityEditor.ShaderGraph.UVNode",
    "m_ObjectId": "55dfb9c10cc4461199b1b575770d7a4b",
    "m_Group": {
        "m_Id": "7a0b9a012d15497a8f029e00fa3ce9d5"
    },
    "m_Name": "UV",
    "m_DrawState": {
        "m_Expanded": true,
        "m_Position": {
            "serializedVersion": "2",
            "x": -1928.0,
            "y": -333.0,
            "width": 208.0,
            "height": 313.9999694824219
        }
    },
    "m_Slots": [
        {
            "m_Id": "b9eb2ce92eb743f6b2b8cf8b57a5a845"
        }
    ],
    "synonyms": [],
    "m_Precision": 0,
    "m_PreviewExpanded": true,
    "m_PreviewMode": 0,
    "m_CustomColors": {
        "m_SerializableColors": []
    },
    "m_OutputChannel": 0
}

{
    "m_SGVersion": 0,
    "m_Type": "UnityEditor.ShaderGraph.BooleanMaterialSlot",
    "m_ObjectId": "5727e591ef4647aa84f71c8e6c12ed5b",
    "m_Id": 1,
    "m_DisplayName": "B",
    "m_SlotType": 0,
    "m_Hidden": false,
    "m_ShaderOutputName": "B",
    "m_StageCapability": 3,
    "m_Value": false,
    "m_DefaultValue": false
}

{
    "m_SGVersion": 0,
    "m_Type": "UnityEditor.ShaderGraph.BooleanMaterialSlot",
    "m_ObjectId": "5817951f8c5a427ea7972224119d68cf",
    "m_Id": 2,
    "m_DisplayName": "Out",
    "m_SlotType": 1,
    "m_Hidden": false,
    "m_ShaderOutputName": "Out",
    "m_StageCapability": 3,
    "m_Value": false,
    "m_DefaultValue": false
}

{
    "m_SGVersion": 0,
    "m_Type": "UnityEditor.ShaderGraph.StickyNoteData",
    "m_ObjectId": "5c9d9f06e9264df6afbcc8aad2d12dfa",
    "m_Title": "Split",
    "m_Content": "Split to operate on 'X' and 'Y' coords separatly",
    "m_TextSize": 0,
    "m_Theme": 0,
    "m_Position": {
        "serializedVersion": "2",
        "x": -874.0,
        "y": -411.0,
        "width": 142.0,
        "height": 106.0
    },
    "m_Group": {
        "m_Id": ""
    }
}

{
    "m_SGVersion": 0,
    "m_Type": "UnityEditor.ShaderGraph.BooleanMaterialSlot",
    "m_ObjectId": "5de45d9cc59041faad147ab3afcfa5fd",
    "m_Id": 1,
    "m_DisplayName": "B",
    "m_SlotType": 0,
    "m_Hidden": false,
    "m_ShaderOutputName": "B",
    "m_StageCapability": 3,
    "m_Value": false,
    "m_DefaultValue": false
}

{
    "m_SGVersion": 0,
    "m_Type": "UnityEditor.ShaderGraph.BooleanMaterialSlot",
    "m_ObjectId": "653e87889b134a5b91ca0f9560802cbf",
    "m_Id": 0,
    "m_DisplayName": "A",
    "m_SlotType": 0,
    "m_Hidden": false,
    "m_ShaderOutputName": "A",
    "m_StageCapability": 3,
    "m_Value": false,
    "m_DefaultValue": false
}

{
    "m_SGVersion": 0,
    "m_Type": "UnityEditor.ShaderGraph.BooleanMaterialSlot",
    "m_ObjectId": "6710befd4d6d4ee79b71e780abad6161",
    "m_Id": 0,
    "m_DisplayName": "DrawGridCells",
    "m_SlotType": 1,
    "m_Hidden": false,
    "m_ShaderOutputName": "Out",
    "m_StageCapability": 3,
    "m_Value": false,
    "m_DefaultValue": false
}

{
    "m_SGVersion": 0,
    "m_Type": "UnityEditor.ShaderGraph.Vector1MaterialSlot",
    "m_ObjectId": "68d1d28194c34c07b3dba370a2bb62e5",
    "m_Id": 1,
    "m_DisplayName": "B",
    "m_SlotType": 0,
    "m_Hidden": false,
    "m_ShaderOutputName": "B",
    "m_StageCapability": 3,
    "m_Value": 0.019999999552965165,
    "m_DefaultValue": 0.0,
    "m_Labels": []
}

{
    "m_SGVersion": 0,
    "m_Type": "UnityEditor.ShaderGraph.BooleanMaterialSlot",
    "m_ObjectId": "69cf8a6da4694eb88a3cad1575a4ca88",
    "m_Id": 1,
    "m_DisplayName": "B",
    "m_SlotType": 0,
    "m_Hidden": false,
    "m_ShaderOutputName": "B",
    "m_StageCapability": 3,
    "m_Value": false,
    "m_DefaultValue": false
}

{
    "m_SGVersion": 0,
    "m_Type": "UnityEditor.ShaderGraph.ComparisonNode",
    "m_ObjectId": "6bbf7a605110459d8b6f04c1790197ee",
    "m_Group": {
        "m_Id": ""
    },
    "m_Name": "Comparison",
    "m_DrawState": {
        "m_Expanded": true,
        "m_Position": {
            "serializedVersion": "2",
            "x": -601.5,
            "y": -164.0,
            "width": 145.0,
            "height": 136.99998474121095
        }
    },
    "m_Slots": [
        {
            "m_Id": "42fb9a83ba6a4839841476984917ac1c"
        },
        {
            "m_Id": "030430f708ff40c49f54cf67e25be435"
        },
        {
            "m_Id": "3792e2ce5af241ff8871fe828aa6f371"
        }
    ],
    "synonyms": [],
    "m_Precision": 0,
    "m_PreviewExpanded": true,
    "m_PreviewMode": 0,
    "m_CustomColors": {
        "m_SerializableColors": []
    },
    "m_ComparisonType": 4
}

{
    "m_SGVersion": 0,
    "m_Type": "UnityEditor.ShaderGraph.DynamicVectorMaterialSlot",
    "m_ObjectId": "75b962e1534d497e834d30689e756cf6",
    "m_Id": 0,
    "m_DisplayName": "In",
    "m_SlotType": 0,
    "m_Hidden": false,
    "m_ShaderOutputName": "In",
    "m_StageCapability": 3,
    "m_Value": {
        "x": 0.0,
        "y": 0.0,
        "z": 0.0,
        "w": 0.0
    },
    "m_DefaultValue": {
        "x": 0.0,
        "y": 0.0,
        "z": 0.0,
        "w": 0.0
    }
}

{
    "m_SGVersion": 0,
    "m_Type": "UnityEditor.ShaderGraph.DynamicVectorMaterialSlot",
    "m_ObjectId": "763cd128b7ed4538b1e383a269a659e2",
    "m_Id": 1,
    "m_DisplayName": "Out",
    "m_SlotType": 1,
    "m_Hidden": false,
    "m_ShaderOutputName": "Out",
    "m_StageCapability": 3,
    "m_Value": {
        "x": 0.0,
        "y": 0.0,
        "z": 0.0,
        "w": 0.0
    },
    "m_DefaultValue": {
        "x": 0.0,
        "y": 0.0,
        "z": 0.0,
        "w": 0.0
    }
}

{
    "m_SGVersion": 0,
    "m_Type": "UnityEditor.ShaderGraph.OrNode",
    "m_ObjectId": "7805fcf7b6d74c6881e74bd09793f218",
    "m_Group": {
        "m_Id": ""
    },
    "m_Name": "Or",
    "m_DrawState": {
        "m_Expanded": true,
        "m_Position": {
            "serializedVersion": "2",
            "x": -203.50006103515626,
            "y": -76.0,
            "width": 129.99998474121095,
            "height": 101.0
        }
    },
    "m_Slots": [
        {
            "m_Id": "c4c2f264cd234f85af41f74795add58a"
        },
        {
            "m_Id": "e138deb2b3e848b6add324618497385c"
        },
        {
            "m_Id": "04ee58c2504d4484a40c63c7160865ee"
        }
    ],
    "synonyms": [],
    "m_Precision": 0,
    "m_PreviewExpanded": true,
    "m_PreviewMode": 0,
    "m_CustomColors": {
        "m_SerializableColors": []
    }
}

{
    "m_SGVersion": 0,
    "m_Type": "UnityEditor.ShaderGraph.GroupData",
    "m_ObjectId": "7a0b9a012d15497a8f029e00fa3ce9d5",
    "m_Title": "TESTING ELEMENTS (Substitute Fraction for UVGrid)",
    "m_Position": {
        "x": -1953.0,
        "y": -391.9999694824219
    }
}

{
    "m_SGVersion": 0,
    "m_Type": "UnityEditor.ShaderGraph.TilingAndOffsetNode",
    "m_ObjectId": "7d552df0095a4d9cb04157d3cdac18d8",
    "m_Group": {
        "m_Id": "7a0b9a012d15497a8f029e00fa3ce9d5"
    },
    "m_Name": "Tiling And Offset",
    "m_DrawState": {
        "m_Expanded": true,
        "m_Position": {
            "serializedVersion": "2",
            "x": -1571.0,
            "y": -333.0,
            "width": 208.0,
            "height": 326.0
        }
    },
    "m_Slots": [
        {
            "m_Id": "905e08396dc244be87f345c913b40e14"
        },
        {
            "m_Id": "30f800c0397c4ed1854e03f1342b3f30"
        },
        {
            "m_Id": "06da000a4012498e880c737c21cca5be"
        },
        {
            "m_Id": "eb9d7f556a2946c8bed767b77cd57e0f"
        }
    ],
    "synonyms": [],
    "m_Precision": 0,
    "m_PreviewExpanded": true,
    "m_PreviewMode": 0,
    "m_CustomColors": {
        "m_SerializableColors": []
    }
}

{
    "m_SGVersion": 0,
    "m_Type": "UnityEditor.ShaderGraph.Vector1MaterialSlot",
    "m_ObjectId": "7eca9bf83a984fa6babb93d7a424c355",
    "m_Id": 1,
    "m_DisplayName": "B",
    "m_SlotType": 0,
    "m_Hidden": false,
    "m_ShaderOutputName": "B",
    "m_StageCapability": 3,
    "m_Value": 0.9800000190734863,
    "m_DefaultValue": 0.0,
    "m_Labels": []
}

{
    "m_SGVersion": 0,
    "m_Type": "UnityEditor.ShaderGraph.Vector1MaterialSlot",
    "m_ObjectId": "854197351176477eae0406920da123db",
    "m_Id": 0,
    "m_DisplayName": "A",
    "m_SlotType": 0,
    "m_Hidden": false,
    "m_ShaderOutputName": "A",
    "m_StageCapability": 3,
    "m_Value": 0.0,
    "m_DefaultValue": 0.0,
    "m_Labels": []
}

{
    "m_SGVersion": 0,
    "m_Type": "UnityEditor.ShaderGraph.ComparisonNode",
    "m_ObjectId": "86ba13ac0c024b3090d8dfd67b55b8f6",
    "m_Group": {
        "m_Id": ""
    },
    "m_Name": "Comparison",
    "m_DrawState": {
        "m_Expanded": true,
        "m_Position": {
            "serializedVersion": "2",
            "x": -604.5,
            "y": -302.0,
            "width": 145.0,
            "height": 136.99998474121095
        }
    },
    "m_Slots": [
        {
            "m_Id": "52d2678e1e794fe790eca02500d178e9"
        },
        {
            "m_Id": "7eca9bf83a984fa6babb93d7a424c355"
        },
        {
            "m_Id": "d88a4e948e8f44b392a856b188005374"
        }
    ],
    "synonyms": [],
    "m_Precision": 0,
    "m_PreviewExpanded": true,
    "m_PreviewMode": 0,
    "m_CustomColors": {
        "m_SerializableColors": []
    },
    "m_ComparisonType": 4
}

{
    "m_SGVersion": 0,
    "m_Type": "UnityEditor.ShaderGraph.BooleanMaterialSlot",
    "m_ObjectId": "8c6bd07afbb846209786d907c08079bc",
    "m_Id": 2,
    "m_DisplayName": "Out",
    "m_SlotType": 1,
    "m_Hidden": false,
    "m_ShaderOutputName": "Out",
    "m_StageCapability": 3,
    "m_Value": false,
    "m_DefaultValue": false
}

{
    "m_SGVersion": 0,
    "m_Type": "UnityEditor.ShaderGraph.UVMaterialSlot",
    "m_ObjectId": "905e08396dc244be87f345c913b40e14",
    "m_Id": 0,
    "m_DisplayName": "UV",
    "m_SlotType": 0,
    "m_Hidden": false,
    "m_ShaderOutputName": "UV",
    "m_StageCapability": 3,
    "m_Value": {
        "x": 0.0,
        "y": 0.0
    },
    "m_DefaultValue": {
        "x": 0.0,
        "y": 0.0
    },
    "m_Labels": [],
    "m_Channel": 0
}

{
    "m_SGVersion": 0,
    "m_Type": "UnityEditor.ShaderGraph.BooleanMaterialSlot",
    "m_ObjectId": "920f167be09a40afbe76590844d512d3",
    "m_Id": 0,
    "m_DisplayName": "A",
    "m_SlotType": 0,
    "m_Hidden": false,
    "m_ShaderOutputName": "A",
    "m_StageCapability": 3,
    "m_Value": false,
    "m_DefaultValue": false
}

{
    "m_SGVersion": 0,
    "m_Type": "UnityEditor.ShaderGraph.BooleanMaterialSlot",
    "m_ObjectId": "9e5aa731ca024de6b122adc023298c57",
    "m_Id": 2,
    "m_DisplayName": "Out",
    "m_SlotType": 1,
    "m_Hidden": false,
    "m_ShaderOutputName": "Out",
    "m_StageCapability": 3,
    "m_Value": false,
    "m_DefaultValue": false
}

{
    "m_SGVersion": 0,
    "m_Type": "UnityEditor.ShaderGraph.SubGraphOutputNode",
    "m_ObjectId": "a4bd1bd15ea94ebd98d2a52652adce60",
    "m_Group": {
        "m_Id": ""
    },
    "m_Name": "Output",
    "m_DrawState": {
        "m_Expanded": true,
        "m_Position": {
            "serializedVersion": "2",
            "x": 981.0,
            "y": -73.99998474121094,
            "width": 120.0,
            "height": 77.0
        }
    },
    "m_Slots": [
        {
            "m_Id": "522088b64b2f4ecebb5a38f3fb525ca1"
        }
    ],
    "synonyms": [],
    "m_Precision": 0,
    "m_PreviewExpanded": true,
    "m_PreviewMode": 0,
    "m_CustomColors": {
        "m_SerializableColors": []
    },
    "IsFirstSlotValid": true
}

{
    "m_SGVersion": 0,
    "m_Type": "UnityEditor.ShaderGraph.Vector4MaterialSlot",
    "m_ObjectId": "b9eb2ce92eb743f6b2b8cf8b57a5a845",
    "m_Id": 0,
    "m_DisplayName": "Out",
    "m_SlotType": 1,
    "m_Hidden": false,
    "m_ShaderOutputName": "Out",
    "m_StageCapability": 3,
    "m_Value": {
        "x": 0.0,
        "y": 0.0,
        "z": 0.0,
        "w": 0.0
    },
    "m_DefaultValue": {
        "x": 0.0,
        "y": 0.0,
        "z": 0.0,
        "w": 0.0
    },
    "m_Labels": []
}

{
    "m_SGVersion": 0,
    "m_Type": "UnityEditor.ShaderGraph.BooleanMaterialSlot",
    "m_ObjectId": "bb62a3480d8349f98e00d4ca88db8e32",
    "m_Id": 2,
    "m_DisplayName": "Out",
    "m_SlotType": 1,
    "m_Hidden": false,
    "m_ShaderOutputName": "Out",
    "m_StageCapability": 3,
    "m_Value": false,
    "m_DefaultValue": false
}

{
    "m_SGVersion": 0,
    "m_Type": "UnityEditor.ShaderGraph.BooleanMaterialSlot",
    "m_ObjectId": "c1c9a8ca34924e7db792c11312acbfdf",
    "m_Id": 0,
    "m_DisplayName": "Predicate",
    "m_SlotType": 0,
    "m_Hidden": false,
    "m_ShaderOutputName": "Predicate",
    "m_StageCapability": 3,
    "m_Value": false,
    "m_DefaultValue": false
}

{
    "m_SGVersion": 0,
    "m_Type": "UnityEditor.ShaderGraph.BooleanMaterialSlot",
    "m_ObjectId": "c1daafe69f6445828223d84943cbb626",
    "m_Id": 2,
    "m_DisplayName": "Out",
    "m_SlotType": 1,
    "m_Hidden": false,
    "m_ShaderOutputName": "Out",
    "m_StageCapability": 3,
    "m_Value": false,
    "m_DefaultValue": false
}

{
    "m_SGVersion": 0,
    "m_Type": "UnityEditor.ShaderGraph.BooleanMaterialSlot",
    "m_ObjectId": "c4c2f264cd234f85af41f74795add58a",
    "m_Id": 0,
    "m_DisplayName": "A",
    "m_SlotType": 0,
    "m_Hidden": false,
    "m_ShaderOutputName": "A",
    "m_StageCapability": 3,
    "m_Value": false,
    "m_DefaultValue": false
}

{
    "m_SGVersion": 0,
    "m_Type": "UnityEditor.ShaderGraph.Vector1MaterialSlot",
    "m_ObjectId": "c906c6e99ae749ada6525192c0ff8ff6",
    "m_Id": 3,
    "m_DisplayName": "B",
    "m_SlotType": 1,
    "m_Hidden": false,
    "m_ShaderOutputName": "B",
    "m_StageCapability": 3,
    "m_Value": 0.0,
    "m_DefaultValue": 0.0,
    "m_Labels": []
}

{
    "m_SGVersion": 0,
    "m_Type": "UnityEditor.ShaderGraph.StickyNoteData",
    "m_ObjectId": "cefe5faf10e24c40a0981cdba82d89ed",
    "m_Title": "Branch",
    "m_Content": "Branch to color 'x' values that are greater than '0.98' or less than '0.02'. Same goes for 'y'.",
    "m_TextSize": 0,
    "m_Theme": 0,
    "m_Position": {
        "serializedVersion": "2",
        "x": 472.0,
        "y": -264.0,
        "width": 432.0,
        "height": 100.0
    },
    "m_Group": {
        "m_Id": ""
    }
}

{
    "m_SGVersion": 0,
    "m_Type": "UnityEditor.ShaderGraph.PropertyNode",
    "m_ObjectId": "d146baaa7b294c639bcc88e6bdbe7ecc",
    "m_Group": {
        "m_Id": ""
    },
    "m_Name": "Property",
    "m_DrawState": {
        "m_Expanded": true,
        "m_Position": {
            "serializedVersion": "2",
            "x": -984.400146484375,
            "y": -262.20001220703127,
            "width": 0.0,
            "height": 0.0
        }
    },
    "m_Slots": [
        {
            "m_Id": "f253e85dfbd940db8deaf3f87d11ba07"
        }
    ],
    "synonyms": [],
    "m_Precision": 0,
    "m_PreviewExpanded": true,
    "m_PreviewMode": 0,
    "m_CustomColors": {
        "m_SerializableColors": []
    },
    "m_Property": {
        "m_Id": "ff84d46ac9514558b3c886bbf5782350"
    }
}

{
    "m_SGVersion": 0,
    "m_Type": "UnityEditor.ShaderGraph.Internal.BooleanShaderProperty",
    "m_ObjectId": "d48df8321f9948faac641001f4da0ffc",
    "m_Guid": {
        "m_GuidSerialized": "48f61c31-3022-49c6-864a-31512bc7eec1"
    },
    "m_Name": "DrawGridCells",
    "m_DefaultReferenceName": "Boolean_d48df8321f9948faac641001f4da0ffc",
    "m_OverrideReferenceName": "",
    "m_GeneratePropertyBlock": true,
    "m_Precision": 0,
    "overrideHLSLDeclaration": false,
    "hlslDeclarationOverride": 0,
    "m_Hidden": false,
    "m_Value": true
}

{
    "m_SGVersion": 0,
    "m_Type": "UnityEditor.ShaderGraph.Vector1MaterialSlot",
    "m_ObjectId": "d5f28a795f8d4ec3a4768fd6b855ca9e",
    "m_Id": 1,
    "m_DisplayName": "B",
    "m_SlotType": 0,
    "m_Hidden": false,
    "m_ShaderOutputName": "B",
    "m_StageCapability": 3,
    "m_Value": 0.019999999552965165,
    "m_DefaultValue": 0.0,
    "m_Labels": []
}

{
    "m_SGVersion": 0,
    "m_Type": "UnityEditor.ShaderGraph.BooleanMaterialSlot",
    "m_ObjectId": "d88a4e948e8f44b392a856b188005374",
    "m_Id": 2,
    "m_DisplayName": "Out",
    "m_SlotType": 1,
    "m_Hidden": false,
    "m_ShaderOutputName": "Out",
    "m_StageCapability": 3,
    "m_Value": false,
    "m_DefaultValue": false
}

{
    "m_SGVersion": 0,
    "m_Type": "UnityEditor.ShaderGraph.Vector1MaterialSlot",
    "m_ObjectId": "d8caf7a76201473c9fa6fe4e9811a787",
    "m_Id": 2,
    "m_DisplayName": "G",
    "m_SlotType": 1,
    "m_Hidden": false,
    "m_ShaderOutputName": "G",
    "m_StageCapability": 3,
    "m_Value": 0.0,
    "m_DefaultValue": 0.0,
    "m_Labels": []
}

{
    "m_SGVersion": 0,
    "m_Type": "UnityEditor.ShaderGraph.DynamicVectorMaterialSlot",
    "m_ObjectId": "db573f17ac094eafbcc3666c9e875e5e",
    "m_Id": 2,
    "m_DisplayName": "False",
    "m_SlotType": 0,
    "m_Hidden": false,
    "m_ShaderOutputName": "False",
    "m_StageCapability": 3,
    "m_Value": {
        "x": 0.0,
        "y": 0.0,
        "z": 0.0,
        "w": 0.0
    },
    "m_DefaultValue": {
        "x": 0.0,
        "y": 0.0,
        "z": 0.0,
        "w": 0.0
    }
}

{
    "m_SGVersion": 0,
    "m_Type": "UnityEditor.ShaderGraph.StickyNoteData",
    "m_ObjectId": "ddc48fe05ced4a0bbaa6f29ace227851",
    "m_Title": "Or",
    "m_Content": "Merge all comparisons",
    "m_TextSize": 0,
    "m_Theme": 0,
    "m_Position": {
        "serializedVersion": "2",
        "x": -199.0,
        "y": -179.0,
        "width": 123.0,
        "height": 100.0
    },
    "m_Group": {
        "m_Id": ""
    }
}

{
    "m_SGVersion": 0,
    "m_Type": "UnityEditor.ShaderGraph.BooleanMaterialSlot",
    "m_ObjectId": "e138deb2b3e848b6add324618497385c",
    "m_Id": 1,
    "m_DisplayName": "B",
    "m_SlotType": 0,
    "m_Hidden": false,
    "m_ShaderOutputName": "B",
    "m_StageCapability": 3,
    "m_Value": false,
    "m_DefaultValue": false
}

{
    "m_SGVersion": 0,
    "m_Type": "UnityEditor.ShaderGraph.Vector1MaterialSlot",
    "m_ObjectId": "e4b964be75824c7e8b38606072878f95",
    "m_Id": 0,
    "m_DisplayName": "A",
    "m_SlotType": 0,
    "m_Hidden": false,
    "m_ShaderOutputName": "A",
    "m_StageCapability": 3,
    "m_Value": 0.0,
    "m_DefaultValue": 0.0,
    "m_Labels": []
}

{
    "m_SGVersion": 1,
    "m_Type": "UnityEditor.ShaderGraph.ColorNode",
    "m_ObjectId": "e51717234eed42de9c898c0066be1dd9",
    "m_Group": {
        "m_Id": ""
    },
    "m_Name": "Color",
    "m_DrawState": {
        "m_Expanded": true,
        "m_Position": {
            "serializedVersion": "2",
            "x": 470.49993896484377,
            "y": -155.0001220703125,
            "width": 208.00001525878907,
            "height": 127.00000762939453
        }
    },
    "m_Slots": [
        {
            "m_Id": "5242be6b0966460cac1f1a5aaf054cbe"
        }
    ],
    "synonyms": [],
    "m_Precision": 0,
    "m_PreviewExpanded": true,
    "m_PreviewMode": 0,
    "m_CustomColors": {
        "m_SerializableColors": []
    },
    "m_Color": {
        "color": {
            "r": 0.9716981053352356,
            "g": 0.0,
            "b": 0.869503915309906,
            "a": 0.0
        },
        "mode": 0
    }
}

{
    "m_SGVersion": 0,
    "m_Type": "UnityEditor.ShaderGraph.DynamicVectorMaterialSlot",
    "m_ObjectId": "e92c3c01a8f243c28b87e8fff6f91444",
    "m_Id": 0,
    "m_DisplayName": "In",
    "m_SlotType": 0,
    "m_Hidden": false,
    "m_ShaderOutputName": "In",
    "m_StageCapability": 3,
    "m_Value": {
        "x": 0.0,
        "y": 0.0,
        "z": 0.0,
        "w": 0.0
    },
    "m_DefaultValue": {
        "x": 0.0,
        "y": 0.0,
        "z": 0.0,
        "w": 0.0
    }
}

{
    "m_SGVersion": 0,
    "m_Type": "UnityEditor.ShaderGraph.ComparisonNode",
    "m_ObjectId": "e9c599eddd2149e2b56b95a2652bd9f8",
    "m_Group": {
        "m_Id": ""
    },
    "m_Name": "Comparison",
    "m_DrawState": {
        "m_Expanded": true,
        "m_Position": {
            "serializedVersion": "2",
            "x": -604.5,
            "y": 24.0,
            "width": 145.0,
            "height": 136.99998474121095
        }
    },
    "m_Slots": [
        {
            "m_Id": "854197351176477eae0406920da123db"
        },
        {
            "m_Id": "68d1d28194c34c07b3dba370a2bb62e5"
        },
        {
            "m_Id": "c1daafe69f6445828223d84943cbb626"
        }
    ],
    "synonyms": [],
    "m_Precision": 0,
    "m_PreviewExpanded": true,
    "m_PreviewMode": 0,
    "m_CustomColors": {
        "m_SerializableColors": []
    },
    "m_ComparisonType": 2
}

{
    "m_SGVersion": 0,
    "m_Type": "UnityEditor.ShaderGraph.StickyNoteData",
    "m_ObjectId": "eb9980dd4fae49b7869d6cd56ee018e3",
    "m_Title": "Comparison",
    "m_Content": "Compares the two input values A and B based on the condition selected on the dropdown. Example: if 'Less or Equal' selected in dropdown then formula is 'Out = A <= B ? 1 : 0;'",
    "m_TextSize": 0,
    "m_Theme": 0,
    "m_Position": {
        "serializedVersion": "2",
        "x": -611.0,
        "y": -466.0,
        "width": 162.0,
        "height": 160.0
    },
    "m_Group": {
        "m_Id": ""
    }
}

{
    "m_SGVersion": 0,
    "m_Type": "UnityEditor.ShaderGraph.Vector2MaterialSlot",
    "m_ObjectId": "eb9d7f556a2946c8bed767b77cd57e0f",
    "m_Id": 3,
    "m_DisplayName": "Out",
    "m_SlotType": 1,
    "m_Hidden": false,
    "m_ShaderOutputName": "Out",
    "m_StageCapability": 3,
    "m_Value": {
        "x": 0.0,
        "y": 0.0
    },
    "m_DefaultValue": {
        "x": 0.0,
        "y": 0.0
    },
    "m_Labels": []
}

{
    "m_SGVersion": 0,
    "m_Type": "UnityEditor.ShaderGraph.Vector2MaterialSlot",
    "m_ObjectId": "f253e85dfbd940db8deaf3f87d11ba07",
    "m_Id": 0,
    "m_DisplayName": "UVGrid",
    "m_SlotType": 1,
    "m_Hidden": false,
    "m_ShaderOutputName": "Out",
    "m_StageCapability": 3,
    "m_Value": {
        "x": 0.0,
        "y": 0.0
    },
    "m_DefaultValue": {
        "x": 0.0,
        "y": 0.0
    },
    "m_Labels": []
}

{
    "m_SGVersion": 0,
    "m_Type": "UnityEditor.ShaderGraph.Vector1MaterialSlot",
    "m_ObjectId": "f44c3cf37fcb4be98e9ccf5d593de15f",
    "m_Id": 1,
    "m_DisplayName": "R",
    "m_SlotType": 1,
    "m_Hidden": false,
    "m_ShaderOutputName": "R",
    "m_StageCapability": 3,
    "m_Value": 0.0,
    "m_DefaultValue": 0.0,
    "m_Labels": []
}

{
    "m_SGVersion": 1,
    "m_Type": "UnityEditor.ShaderGraph.Internal.Vector2ShaderProperty",
    "m_ObjectId": "ff84d46ac9514558b3c886bbf5782350",
    "m_Guid": {
        "m_GuidSerialized": "34ad4e79-dd0f-4568-bd18-5e86d13c2881"
    },
    "m_Name": "UVGrid",
    "m_DefaultReferenceName": "Vector2_ff84d46ac9514558b3c886bbf5782350",
    "m_OverrideReferenceName": "",
    "m_GeneratePropertyBlock": true,
    "m_Precision": 0,
    "overrideHLSLDeclaration": false,
    "hlslDeclarationOverride": 0,
    "m_Hidden": false,
    "m_Value": {
        "x": 0.0,
        "y": 0.0,
        "z": 0.0,
        "w": 0.0
    }
}

{
    "m_SGVersion": 0,
    "m_Type": "UnityEditor.ShaderGraph.SplitNode",
    "m_ObjectId": "ffd8b9ffbddf4f71a611610c229f395d",
    "m_Group": {
        "m_Id": ""
    },
    "m_Name": "Split",
    "m_DrawState": {
        "m_Expanded": true,
        "m_Position": {
            "serializedVersion": "2",
            "x": -865.5,
            "y": -302.0,
            "width": 119.99999237060547,
            "height": 148.99998474121095
        }
    },
    "m_Slots": [
        {
            "m_Id": "e92c3c01a8f243c28b87e8fff6f91444"
        },
        {
            "m_Id": "f44c3cf37fcb4be98e9ccf5d593de15f"
        },
        {
            "m_Id": "d8caf7a76201473c9fa6fe4e9811a787"
        },
        {
            "m_Id": "c906c6e99ae749ada6525192c0ff8ff6"
        },
        {
            "m_Id": "1f35a9a9b6324f3ebbd198c73227208b"
        }
    ],
    "synonyms": [],
    "m_Precision": 0,
    "m_PreviewExpanded": true,
    "m_PreviewMode": 0,
    "m_CustomColors": {
        "m_SerializableColors": []
    }
}

