%YAML 1.1
%TAG !u! tag:unity3d.com,2011:
--- !u!21 &2100000
Material:
  serializedVersion: 6
  m_ObjectHideFlags: 0
  m_CorrespondingSourceObject: {fileID: 0}
  m_PrefabInstance: {fileID: 0}
  m_PrefabAsset: {fileID: 0}
  m_Name: StarField_Capsule
  m_Shader: {fileID: -6465566751694194690, guid: 585f4eecf5d715e439a3dd8b971b0f00,
    type: 3}
  m_ShaderKeywords: 
  m_LightmapFlags: 4
  m_EnableInstancingVariants: 0
  m_DoubleSidedGI: 0
  m_CustomRenderQueue: -1
  stringTagMap: {}
  disabledShaderPasses: []
  m_SavedProperties:
    serializedVersion: 3
    m_TexEnvs:
    - unity_Lightmaps:
        m_Texture: {fileID: 0}
        m_Scale: {x: 1, y: 1}
        m_Offset: {x: 0, y: 0}
    - unity_LightmapsInd:
        m_Texture: {fileID: 0}
        m_Scale: {x: 1, y: 1}
        m_Offset: {x: 0, y: 0}
    - unity_ShadowMasks:
        m_Texture: {fileID: 0}
        m_Scale: {x: 1, y: 1}
        m_Offset: {x: 0, y: 0}
    m_Floats:
    - AnimationSpeed: 0.05
    - DebugGridCells: 0
    - FlareBrightness: 0.1
    - FlareRingEdge1: 0.7
    - FlareRingEdge2: 0.1
    - FlareThickness: 0.1
    - GranularityIntesity: 0
    - GridTiles: 32
    - IsFlareEnabled: 1
    - StarBrightness: 0.1
    - StarMaxFadeRate: 0.5
    - StarMinFadeRate: 0.1
    - StarSize: 0.2
    - Vector1_68fc7171e5a347c68df1b00ff1f3ef74: 0.01
    m_Colors: []
  m_BuildTextureStacks: []
